<svg width="119" height="112" viewBox="0 0 119 112" fill="none" xmlns="http://www.w3.org/2000/svg">
<path d="M109.206 83.7257H104.172V80.0655H109.206C112.319 80.0655 114.882 77.5034 114.882 74.3923V9.33335C114.882 6.22224 112.319 3.66014 109.206 3.66014H9.79343C6.68105 3.66014 4.11792 6.22224 4.11792 9.33335V74.3923C4.11792 77.5034 6.68105 80.0655 9.79343 80.0655H30.4816V83.7257H9.79343C4.66716 83.7257 0.456299 79.5165 0.456299 74.3923V9.33335C0.456299 4.20916 4.66716 0 9.79343 0H109.206C114.333 0 118.544 4.20916 118.544 9.33335V74.3923C118.544 79.5165 114.333 83.7257 109.206 83.7257Z" fill="#F89921"/>
<path d="M99.0453 74.9412H91.9967V71.2811H97.123V12.4443H12.5395V71.3726H37.6216V75.0327H10.7087C9.70179 75.0327 8.87793 74.2092 8.87793 73.2026V10.6142C8.87793 9.60771 9.70179 8.78418 10.7087 8.78418H99.0453C100.052 8.78418 100.876 9.60771 100.876 10.6142V73.2026C100.876 74.1177 100.052 74.9412 99.0453 74.9412Z" fill="#F89921"/>
<path d="M107.559 47.6732C104.355 47.6732 101.792 45.1111 101.792 41.9085C101.792 38.7059 104.355 36.1438 107.559 36.1438C110.763 36.1438 113.326 38.7059 113.326 41.9085C113.417 45.0196 110.763 47.6732 107.559 47.6732ZM107.559 39.7124C106.369 39.7124 105.453 40.719 105.453 41.817C105.453 43.0066 106.46 43.9216 107.559 43.9216C108.657 43.9216 109.664 42.9151 109.664 41.817C109.756 40.719 108.749 39.7124 107.559 39.7124Z" fill="#F89921"/>
<path d="M27.9185 57.5558H18.9475C17.9406 57.5558 17.1167 56.7322 17.1167 55.7257V25.5295C17.1167 24.523 17.9406 23.6995 18.9475 23.6995H49.1559C50.1628 23.6995 50.9867 24.523 50.9867 25.5295V51.5165H47.3251V27.3596H20.7783V53.8956H27.9185V57.5558Z" fill="#F89921"/>
<path d="M70.9425 23.6995H60.5984V27.3596H70.9425V23.6995Z" fill="#F89921"/>
<path d="M88.1521 33.5818H60.5984V37.2419H88.1521V33.5818Z" fill="#F89921"/>
<path d="M88.1521 43.5557H60.5984V47.2158H88.1521V43.5557Z" fill="#F89921"/>
<path d="M88.0605 53.4382H78.6318V57.0984H88.0605V53.4382Z" fill="#F89921"/>
<path d="M66.9148 101.661L64.9009 99.0985L56.2961 97.6344C56.113 97.6344 55.8384 97.5429 55.6553 97.3599L36.7979 85.922C36.4318 85.6475 34.0517 84.0004 34.1433 81.4383C34.2348 79.7913 35.2417 78.4187 37.2556 77.4122C40.368 75.7651 44.8535 76.6801 48.2405 77.8697L29.9324 54.9023C28.9255 53.7128 28.4677 52.1572 28.6508 50.6017C28.8339 49.0461 29.5662 47.6735 30.7563 46.667C31.9463 45.6605 33.5025 45.2945 35.0587 45.4775C36.6149 45.6605 37.988 46.484 38.9949 47.6735L36.1572 49.9611C35.791 49.5036 35.2417 49.1376 34.601 49.1376C34.0517 49.0461 33.5025 49.2291 33.0448 49.5951C32.5871 49.9611 32.3125 50.4187 32.3125 51.0592C32.2209 51.6082 32.404 52.2487 32.8617 52.7062L53.5498 78.6017C53.8245 78.8762 53.916 79.2422 53.916 79.6083L54.0075 81.4383C54.0075 82.0789 53.7329 82.7194 53.1837 83.0854C52.6344 83.4514 51.9021 83.4514 51.3529 83.1769C48.0574 81.4383 41.7411 79.1507 38.9949 80.6148C37.988 81.1638 37.8049 81.5298 37.8049 81.6213C37.8049 81.8958 38.3541 82.5364 38.7203 82.8109L57.2115 94.0658L66.0909 95.6214C66.5486 95.7129 66.9148 95.8959 67.1894 96.2619L69.661 99.2815L66.9148 101.661Z" fill="#F89921"/>
<path d="M38.984 47.6831L36.1221 49.9663L53.6527 71.9227L56.5146 69.6395L38.984 47.6831Z" fill="#F89921"/>
<path d="M53.4583 71.6474L47.9658 64.7847C46.9589 63.5951 46.5012 62.0395 46.6843 60.484C46.8674 58.9284 47.5997 57.5559 48.7897 56.5493C49.9797 55.5428 51.5359 55.1768 53.0921 55.3598C54.6483 55.5428 56.0214 56.3663 57.0284 57.5559L54.1906 59.8435C53.8244 59.3859 53.2752 59.0199 52.6344 59.0199C52.0852 58.9284 51.5359 59.1114 51.0782 59.4774C50.6205 59.8435 50.3459 60.301 50.3459 60.9415C50.2544 61.4905 50.4374 62.1311 50.8951 62.5886L56.3876 69.4513L53.4583 71.6474Z" fill="#F89921"/>
<path d="M57.0408 57.5448L54.1792 59.8284L60.3473 67.5515L63.2089 65.2679L57.0408 57.5448Z" fill="#F89921"/>
<path d="M56.3875 62.5884C55.3805 61.3989 54.9228 59.8433 55.1059 58.2877C55.289 56.7322 56.0213 55.3596 57.2113 54.3531C59.6829 52.34 63.3446 52.7975 65.45 55.3596L62.5207 57.6472C61.7884 56.6407 60.3237 56.4577 59.4083 57.1897C58.9506 57.5557 58.676 58.0132 58.676 58.6537C58.5844 59.2028 58.7675 59.8433 59.2252 60.3008L56.3875 62.5884Z" fill="#F89921"/>
<path d="M65.3564 55.3951L62.4949 57.6787L67.5207 63.9716L70.3823 61.688L65.3564 55.3951Z" fill="#F89921"/>
<path d="M64.6262 60.3926C63.6193 59.203 63.1616 57.6475 63.3447 56.0919C63.5278 54.5363 64.2601 53.1638 65.4501 52.1572C66.6401 51.1507 68.1963 50.7847 69.7525 50.9677C71.3087 51.1507 72.6818 51.9742 73.6888 53.1638L70.851 55.4514C70.4848 54.9939 69.9356 54.6278 69.2948 54.6278C68.7456 54.5363 68.1963 54.7193 67.7386 55.0854C67.2809 55.4514 67.0063 55.9089 67.0063 56.5494C66.9148 57.0984 67.0978 57.739 67.5555 58.1965L64.6262 60.3926Z" fill="#F89921"/>
<path d="M89.6169 84.1833L87.3284 81.3466C87.1453 81.1636 87.0537 80.8891 86.9622 80.5231L85.6806 73.9349L70.8511 55.4512L73.6888 53.1636L88.793 72.1048C88.9761 72.2878 89.0676 72.5623 89.1592 72.9283L90.4407 79.5166L92.4546 81.9872L89.6169 84.1833Z" fill="#F89921"/>
<path d="M69.4779 112.001L63.4362 104.406C62.7954 103.582 62.9785 102.484 63.7108 101.844L93.8276 77.7783C94.6515 77.1378 95.75 77.3208 96.3908 78.0528L102.432 85.6476L99.5947 87.9352L94.6515 81.8045L67.3724 103.582L72.3156 109.713L69.4779 112.001Z" fill="#F89921"/>
<path d="M93.5712 85.5698L86.2036 91.4509L88.4885 94.311L95.856 88.4299L93.5712 85.5698Z" fill="#F89921"/>
<path d="M84.6736 96.8109C84.5821 96.8109 84.399 96.8109 84.3074 96.8109C84.2159 96.8109 84.1243 96.7194 83.9413 96.7194C83.8497 96.7194 83.7582 96.6279 83.6667 96.5364C83.5751 96.4449 83.4836 96.3534 83.392 96.3534C83.3005 96.2619 83.209 96.1704 83.209 96.0789C83.1174 95.9874 83.1174 95.8959 83.0259 95.8044C83.0259 95.7129 82.9343 95.6214 82.9343 95.4384C82.9343 95.3469 82.9343 95.1639 82.9343 95.0724C82.9343 94.9809 82.9343 94.7979 82.9343 94.7064C82.9343 94.6149 83.0259 94.5234 83.0259 94.3403C83.1174 94.2488 83.1174 94.1573 83.209 93.9743C83.3005 93.8828 83.3005 93.7913 83.392 93.6998C83.4836 93.6083 83.5751 93.5168 83.6667 93.5168C83.7582 93.4253 83.8497 93.4253 83.9413 93.3338C84.0328 93.2423 84.1244 93.2423 84.3074 93.2423C84.9482 93.1508 85.4975 93.3338 85.9552 93.6998C86.3213 94.0658 86.5044 94.5234 86.5044 94.9809C86.5044 95.4384 86.3213 95.9874 85.9552 96.2619C85.6805 96.6279 85.1313 96.8109 84.6736 96.8109Z" fill="#F89921"/>
</svg>
