<svg width="27" height="27" viewBox="0 0 27 27" fill="none" xmlns="http://www.w3.org/2000/svg">
<path d="M13.6455 9.56537H10.2744C9.98316 9.56537 9.74707 9.80146 9.74707 10.0927V13.0715C9.74707 13.3628 9.98316 13.5989 10.2744 13.5989H13.6456C13.9368 13.5989 14.1729 13.3628 14.1729 13.0715V10.0927C14.1729 9.80146 13.9367 9.56537 13.6455 9.56537ZM13.1182 12.5442H10.8018V10.6201H13.1182V12.5442Z" fill="#F89921"/>
<path d="M19.8654 9.56537H16.4941C16.2029 9.56537 15.9668 9.80146 15.9668 10.0927V13.0715C15.9668 13.3628 16.2029 13.5989 16.4941 13.5989H19.8654C20.1566 13.5989 20.3927 13.3628 20.3927 13.0715V10.0927C20.3927 9.80146 20.1566 9.56537 19.8654 9.56537ZM19.338 12.5442H17.0215V10.6201H19.338V12.5442Z" fill="#F89921"/>
<path d="M20.2385 14.6148C20.2144 14.5905 20.1875 14.5684 20.1585 14.5494C20.13 14.5304 20.0994 14.5141 20.0672 14.5009C20.0355 14.4877 20.0024 14.4772 19.9686 14.4703C19.9006 14.4566 19.8304 14.4566 19.7629 14.4703C19.7292 14.4772 19.696 14.4877 19.6638 14.5009C19.6322 14.5141 19.6016 14.5304 19.5731 14.5494C19.544 14.5684 19.5172 14.5905 19.4929 14.6148C19.3949 14.7129 19.3384 14.8489 19.3384 14.9876C19.3384 15.0219 19.3415 15.0567 19.3483 15.0905C19.3553 15.1242 19.3657 15.1574 19.3784 15.1891C19.3916 15.2212 19.408 15.2518 19.4269 15.2803C19.4464 15.3093 19.4686 15.3362 19.4928 15.3605C19.5171 15.3847 19.544 15.4069 19.573 15.4259C19.6015 15.4448 19.6321 15.4612 19.6638 15.4744C19.6959 15.4876 19.7291 15.4976 19.7629 15.5044C19.7966 15.5113 19.8314 15.515 19.8657 15.515C19.9 15.515 19.9348 15.5113 19.9686 15.5044C20.0023 15.4976 20.0355 15.4876 20.0672 15.4744C20.0993 15.4612 20.1299 15.4448 20.1584 15.4259C20.1874 15.4069 20.2143 15.3847 20.2386 15.3605C20.2628 15.3362 20.285 15.3093 20.3039 15.2803C20.3229 15.2518 20.3392 15.2212 20.3524 15.1891C20.3656 15.1574 20.3756 15.1242 20.3825 15.0905C20.3893 15.0567 20.393 15.0219 20.393 14.9876C20.393 14.8489 20.3366 14.7129 20.2385 14.6148Z" fill="#F89921"/>
<path d="M26.912 20.5515C26.9012 20.5163 26.8897 20.4819 26.8776 20.4489C26.5882 19.6534 25.8251 19.1188 24.9788 19.1188C24.745 19.1188 24.5138 19.1596 24.2914 19.24C23.8357 19.405 23.2116 19.6243 22.4893 19.8608V11.2917L22.8569 11.6348C23.0592 11.8236 23.373 11.8239 23.5758 11.6355L25.2598 10.0702C25.3671 9.97046 25.4281 9.83066 25.4281 9.68416C25.4282 9.53772 25.3674 9.39781 25.2602 9.29799L15.4288 0.141435C15.2264 -0.0470922 14.9126 -0.0471976 14.71 0.141435L4.87865 9.29804C4.7715 9.39787 4.71064 9.53772 4.71069 9.68422C4.71075 9.83066 4.77176 9.97051 4.87902 10.0702L6.56311 11.6356C6.66431 11.7297 6.79319 11.7767 6.92213 11.7767C7.05138 11.7767 7.18068 11.7294 7.28194 11.6349L7.6495 11.2918V17.2377C7.04125 17.7891 6.24 17.933 5.16832 17.9503V16.8401C5.16832 16.5489 4.93223 16.3128 4.64098 16.3128H0.527348C0.236094 16.3128 0 16.5489 0 16.8401V26.4727C0 26.7639 0.236094 27 0.527348 27H4.64108C4.93234 27 5.16843 26.7639 5.16843 26.4727V24.7851H6.90456C8.03457 24.7851 9.18091 25.282 10.2896 25.7625C11.3743 26.2327 12.3989 26.6767 13.4099 26.6767C13.4183 26.6767 13.4266 26.6765 13.435 26.6762C14.8576 26.6085 18.1598 26.1215 24.2919 23.6198C24.7792 23.4211 25.2779 23.2125 25.7742 22.9996C25.7742 22.9996 25.7742 22.9996 25.7743 22.9996C26.7232 22.5922 27.2126 21.5403 26.912 20.5515ZM4.11374 18.4766C4.11374 18.4776 4.11358 18.4786 4.11358 18.4797L4.11374 24.2578V25.9453H3.11135V20.4694C3.11135 20.1781 2.87526 19.942 2.584 19.942C2.29275 19.942 2.05666 20.1781 2.05666 20.4694V25.9453H1.0547V17.3675H4.11374V18.4766ZM6.92139 10.5286L6.01224 9.68353L15.0694 1.24797L24.1266 9.68353L23.2174 10.5286L15.4292 3.25933C15.2266 3.07022 14.9122 3.07022 14.7096 3.25933L6.92139 10.5286ZM18.1393 16.6634C18.1351 16.6629 18.1309 16.6624 18.1267 16.662L11.4195 15.977C11.4191 15.977 11.4188 15.977 11.4185 15.9769C11.3654 15.9703 11.3123 15.965 11.2593 15.9603C11.2464 15.9591 11.2335 15.9581 11.2206 15.9571C11.1729 15.9533 11.1251 15.9501 11.0775 15.9477C11.0722 15.9475 11.067 15.9471 11.0617 15.9469C10.2357 15.9088 9.42418 16.0928 8.70419 16.474V15.5149H18.1252C18.4164 15.5149 18.6526 15.2788 18.6526 14.9875C18.6526 14.6963 18.4164 14.4602 18.1252 14.4602H8.70419V10.3072L15.0694 4.36623L21.4346 10.3073V20.1938C19.6009 20.7541 17.2444 21.3668 15.5057 21.4429C15.4992 21.4431 15.4926 21.4434 15.4861 21.4437C15.44 21.4456 15.3944 21.447 15.3491 21.4481C15.3372 21.4485 15.3251 21.4488 15.3132 21.449C15.261 21.4501 15.2093 21.4508 15.1585 21.4508C14.4679 21.4508 14.1997 20.9343 14.0983 20.4668C14.7296 20.467 15.244 20.4671 15.6534 20.4672C16.1745 20.4672 16.5256 20.4673 16.7313 20.4673C16.746 20.4673 16.76 20.4673 16.7732 20.4673C16.7864 20.4673 16.7989 20.4673 16.8107 20.4673C16.8695 20.4673 16.9103 20.4673 16.934 20.4673H16.9341C17.8124 20.4673 18.6238 20.0381 19.0913 19.337C19.1225 19.2902 19.1522 19.2423 19.1802 19.1931C19.1904 19.1752 19.1993 19.1565 19.2091 19.1384C19.4023 18.7789 19.5054 18.3715 19.5054 17.9549C19.5054 17.5372 19.3279 16.8138 18.1393 16.6634ZM25.3582 22.0304C25.156 22.1171 24.9536 22.2029 24.7515 22.2878L24.377 21.6276C24.2332 21.3743 23.9113 21.2855 23.658 21.4293C23.4048 21.573 23.3159 21.8949 23.4596 22.1481L23.7692 22.6936C17.8824 25.084 14.7506 25.5557 13.3978 25.622C12.6081 25.618 11.6854 25.2181 10.7089 24.7948C9.55786 24.2959 8.2532 23.7304 6.90446 23.7304H5.16838V19.0055C6.26574 18.9914 7.47458 18.8596 8.41405 17.9687C8.4566 17.9285 8.50037 17.8898 8.54457 17.8519C8.56698 17.8327 8.58992 17.8142 8.6127 17.7957C8.6388 17.7744 8.66496 17.7531 8.69154 17.7325C8.71917 17.7113 8.74733 17.6908 8.77554 17.6704C8.79737 17.6546 8.81921 17.6388 8.8413 17.6235C8.87553 17.5999 8.91023 17.5771 8.94519 17.5548C8.96138 17.5445 8.97752 17.5341 8.99381 17.524C9.035 17.4987 9.07666 17.4742 9.11874 17.4506C9.12887 17.4449 9.13904 17.4392 9.14922 17.4336C9.1971 17.4074 9.24551 17.3822 9.29445 17.3582C9.29888 17.3561 9.30326 17.3539 9.30769 17.3518C9.69587 17.164 10.1157 17.0479 10.5462 17.0103C10.5463 17.0103 10.5465 17.0103 10.5466 17.0103C10.6074 17.005 10.6685 17.0013 10.7296 16.9991C10.7382 16.9988 10.7468 16.999 10.7554 16.9987C10.8086 16.9973 10.8618 16.9965 10.9152 16.9974C10.9381 16.9978 10.9611 16.9994 10.984 17.0003C11.0238 17.0017 11.0635 17.0028 11.1034 17.0056C11.167 17.0101 11.2307 17.0162 11.2945 17.0242C11.2985 17.0247 11.3024 17.0252 11.3065 17.0256L15.8028 17.4847V18.3339C15.8028 18.6251 16.039 18.8612 16.3302 18.8612C16.6214 18.8612 16.8575 18.6251 16.8575 18.3339V17.5925L18.0131 17.7105C18.0951 17.7211 18.1619 17.733 18.216 17.746C18.4508 17.8025 18.4508 17.8798 18.4508 17.9549C18.4508 18.213 18.3881 18.4535 18.2644 18.6702C18.248 18.6988 18.2307 18.7268 18.2125 18.754C18.1761 18.8084 18.1359 18.8601 18.0925 18.9087C18.0708 18.933 18.0483 18.9566 18.0249 18.9793C17.7451 19.2525 17.3535 19.4125 16.9341 19.4125C16.9132 19.4125 16.8791 19.4125 16.8311 19.4125C16.8191 19.4125 16.8062 19.4125 16.7924 19.4125C16.7787 19.4125 16.7641 19.4125 16.7485 19.4125C16.4999 19.4125 16.0225 19.4124 15.2671 19.4123C14.795 19.4123 14.2142 19.4121 13.5129 19.4119C13.5128 19.4119 13.5128 19.4119 13.5128 19.4119C13.3716 19.4119 13.2364 19.4685 13.1373 19.569C13.0381 19.6695 12.9835 19.8055 12.9855 19.9467C13.0074 21.5011 13.8603 22.5054 15.1586 22.5054C15.2153 22.5054 15.2729 22.5046 15.331 22.5034C15.3456 22.5031 15.3603 22.5027 15.375 22.5023C15.4257 22.501 15.4769 22.4993 15.5285 22.4971C15.5363 22.4968 15.544 22.4966 15.5519 22.4962C18.4667 22.367 22.8454 20.8852 24.6503 20.2317C24.7571 20.1931 24.8677 20.1735 24.9788 20.1735C25.3833 20.1735 25.7481 20.429 25.8873 20.8116C25.8934 20.8281 25.8987 20.8443 25.9034 20.8595C26.0469 21.332 25.8126 21.8354 25.3582 22.0304Z" fill="#F89921"/>
<path d="M3.1018 18.6263C3.09495 18.5925 3.08493 18.5593 3.07175 18.5277C3.05856 18.4955 3.04221 18.4649 3.02323 18.4364C3.00372 18.4074 2.98157 18.3805 2.95731 18.3563C2.93305 18.332 2.90616 18.3099 2.87715 18.2909C2.84868 18.2719 2.81809 18.2556 2.78645 18.2424C2.75428 18.2292 2.72106 18.2186 2.68784 18.2123C2.61981 18.1986 2.54967 18.1986 2.48164 18.2123C2.44789 18.2186 2.41467 18.2292 2.38303 18.2424C2.35086 18.2556 2.32028 18.2719 2.2918 18.2909C2.26279 18.3099 2.2359 18.332 2.21164 18.3563C2.18738 18.3805 2.16524 18.4074 2.14625 18.4364C2.12727 18.4649 2.11092 18.4955 2.09773 18.5277C2.08455 18.5593 2.07453 18.5925 2.06768 18.6263C2.06082 18.66 2.05713 18.6948 2.05713 18.7291C2.05713 18.7634 2.06082 18.7982 2.06768 18.8319C2.07453 18.8657 2.08455 18.8989 2.09773 18.9306C2.11092 18.9627 2.12727 18.9933 2.14625 19.0218C2.16524 19.0508 2.18738 19.0777 2.21164 19.1019C2.2359 19.1262 2.26279 19.1484 2.2918 19.1673C2.32028 19.1863 2.35086 19.2027 2.38303 19.2159C2.41467 19.229 2.44789 19.2391 2.48164 19.2459C2.51539 19.2528 2.5502 19.2565 2.58448 19.2565C2.61875 19.2565 2.65356 19.2528 2.68784 19.2459C2.72106 19.2391 2.75428 19.229 2.78645 19.2159C2.81809 19.2027 2.84868 19.1863 2.87715 19.1673C2.90616 19.1484 2.93305 19.1262 2.95731 19.1019C2.98157 19.0777 3.00372 19.0508 3.02323 19.0218C3.04221 18.9933 3.05856 18.9627 3.07175 18.9306C3.08493 18.8989 3.09495 18.8657 3.1018 18.8319C3.10866 18.7982 3.11182 18.7634 3.11182 18.7291C3.11182 18.6948 3.10866 18.66 3.1018 18.6263Z" fill="#F89921"/>
</svg>
