<svg width="75" height="57" viewBox="0 0 75 57" fill="none" xmlns="http://www.w3.org/2000/svg">
<path d="M33.589 57H0V28.2702C0 23.4435 0.920246 19.5363 2.53068 16.3185C4.37117 13.1008 6.44172 10.5726 9.20245 8.50403C11.9632 6.43548 15.1841 4.59677 18.4049 3.44758C21.8558 2.06855 25.0767 1.14919 28.2975 0L33.1288 8.96371C30.5982 9.88306 28.5276 10.8024 26.6871 11.9516C25.3068 12.871 23.6963 13.7903 22.546 14.9395C21.6258 16.0887 20.7055 17.4677 20.2454 18.8468C19.7853 20.2258 19.5552 22.0645 19.5552 24.1331H33.589V57ZM75 57H41.6411V28.2702C41.6411 23.4435 42.5614 19.5363 44.1718 16.3185C45.7822 13.1008 48.0828 10.5726 50.8436 8.50403C53.6043 6.43548 56.5951 4.82661 60.046 3.44758C63.4969 2.06855 66.7178 1.14919 69.9387 0L75 8.96371C72.4693 9.88306 70.3988 10.8024 68.5583 11.9516C66.7178 12.871 65.3374 13.7903 64.1871 14.9395C63.0368 16.0887 62.3466 17.4677 61.6564 18.8468C61.1963 20.2258 60.9663 22.0645 60.9663 24.1331H75V57Z" fill="#F89921"/>
</svg>
