<svg width="110" height="131" viewBox="0 0 110 131" fill="none" xmlns="http://www.w3.org/2000/svg">
<path d="M79.4187 92.2458H101.252V96.6125H79.4187V92.2458Z" fill="#F89921"/>
<path d="M79.4187 100.979H101.252V105.346H79.4187V100.979Z" fill="#F89921"/>
<path d="M79.4187 109.713H101.252V114.079H79.4187V109.713Z" fill="#F89921"/>
<path d="M102.617 82.9667H98.4683C95.4117 78.6 91.2633 75.325 86.2417 73.7967L66.81 67.2467C68.5567 65.9367 70.3033 64.19 71.6133 62.4433L74.2333 63.9717C79.6917 67.2467 86.6783 65.5 89.9533 60.0417C91.045 58.295 91.7 56.1117 91.7 54.1467V39.3C91.7 17.685 74.015 0 52.4 0C30.785 0 13.1 17.685 13.1 39.3V54.365C13.1 60.6967 18.34 65.9367 24.6717 65.9367C26.855 65.9367 28.82 65.2817 30.5667 64.19L33.1867 62.6617C34.2783 64.19 35.8067 65.7183 37.335 66.81L16.375 73.7967C6.55 77.0717 0 86.2417 0 96.5033V131H102.617C106.328 131 109.167 128.162 109.167 124.45V89.5167C109.167 85.805 106.328 82.9667 102.617 82.9667ZM92.7917 82.9667H76.4167C73.36 82.9667 70.74 84.9317 70.085 87.9883C64.6267 91.7 60.0417 96.5033 56.7667 102.18L54.5833 105.673V92.7917C62.0067 87.77 68.12 81.4383 72.4867 73.5783L84.9317 77.7267C87.77 78.8183 90.6083 80.565 92.7917 82.9667ZM65.9367 126.633H54.5833V114.188L60.4783 104.363C62.88 100.215 66.155 96.5033 69.8667 93.4467V117.9H65.5V124.45C65.5 125.105 65.7183 125.978 65.9367 126.633ZM32.75 48.0333V30.5667C32.75 29.6933 33.405 28.82 34.2783 28.6017L57.64 20.305C57.8583 20.305 58.0767 20.0867 58.295 20.0867C58.7317 20.0867 59.1683 20.305 59.3867 20.5233L70.9583 27.9467C71.6133 28.3833 72.05 29.0383 72.05 29.6933V48.0333C72.05 49.5617 71.8317 50.8717 71.6133 52.4H63.0983C61.7883 48.9067 58.0767 47.16 54.8017 48.47C51.3083 49.78 49.5617 53.4917 50.8717 56.7667C52.1817 60.0417 55.8933 62.0067 59.1683 60.6967C61.1333 60.0417 62.4433 58.5133 63.0983 56.7667H69.8667C67.9017 60.915 64.6267 63.9717 60.4783 65.9367L56.985 67.6833C54.1467 68.9933 50.8717 68.9933 48.0333 67.6833L44.3217 65.9367C37.335 62.6617 32.75 55.675 32.75 48.0333ZM58.95 54.5833C58.95 55.8933 58.0767 56.7667 56.7667 56.7667C55.4567 56.7667 54.5833 55.8933 54.5833 54.5833C54.5833 53.2733 55.4567 52.4 56.7667 52.4C58.0767 52.4 58.95 53.2733 58.95 54.5833ZM28.165 60.4783C24.89 62.4433 20.305 61.3517 18.34 58.0767C17.9033 56.7667 17.4667 55.675 17.4667 54.365V39.3C17.4667 20.0867 33.1867 4.36667 52.4 4.36667C71.6133 4.36667 87.3333 20.0867 87.3333 39.3V54.365C87.3333 58.295 84.0583 61.57 80.1283 61.57C78.8183 61.57 77.5083 61.1333 76.4167 60.4783L73.7967 58.95C75.5433 55.675 76.4167 51.9633 76.4167 48.2517V29.9117C76.4167 27.7283 75.325 25.545 73.36 24.4533L61.7883 17.03C60.0417 15.9383 58.0767 15.72 56.1117 16.375L32.75 24.235C30.13 25.1083 28.3833 27.7283 28.3833 30.3483V48.0333C28.3833 51.745 29.2567 55.4567 31.0033 58.7317L28.165 60.4783ZM42.3567 69.8667L46.0683 71.6133C49.9983 73.36 54.8017 73.36 58.7317 71.6133L61.7883 70.3033L68.12 72.4867C64.19 79.255 58.7317 84.9317 52.4 89.2983C45.85 84.7133 40.1733 78.8183 36.2433 72.05L42.1383 70.085C42.1383 69.8667 42.3567 69.8667 42.3567 69.8667ZM17.9033 77.945L32.095 73.1417C36.4617 81.0017 42.7933 87.77 50.2167 92.7917V105.673L48.0333 102.18C43.23 94.32 36.2433 87.9883 27.9467 84.0583L16.1567 78.6C16.5933 78.3817 17.2483 78.1633 17.9033 77.945ZM4.36667 96.5033C4.36667 90.6083 6.98667 84.9317 11.5717 81.22L26.2 87.9883C33.8417 91.4817 40.1733 97.1583 44.3217 104.363L50.2167 114.188V126.633H26.2V109.167H21.8333V126.633H4.36667V96.5033ZM104.8 124.45C104.8 125.76 103.927 126.633 102.617 126.633H72.05C70.74 126.633 69.8667 125.76 69.8667 124.45V122.267H104.8V124.45ZM104.8 117.9H74.2333V89.5167C74.2333 88.2067 75.1067 87.3333 76.4167 87.3333H102.617C103.927 87.3333 104.8 88.2067 104.8 89.5167V117.9Z" fill="#F89921"/>
</svg>
