<svg width="34" height="33" viewBox="0 0 34 33" fill="none" xmlns="http://www.w3.org/2000/svg">
<path d="M24.4125 0.297852H10.0829C5.02887 0.297852 0.896484 4.43024 0.896484 9.48424V23.7841C0.896484 28.8976 5.02887 33.0002 10.0829 33.0002H24.3827C29.4665 33.0002 33.5691 28.8678 33.5691 23.8138V9.48424C33.5989 4.43024 29.4962 0.297852 24.4125 0.297852ZM20.6963 14.7761L20.6071 15.995H18.3179C18.3179 19.4733 18.3179 23.7544 18.3179 23.7544H15.1666C15.1666 23.7544 15.1666 19.5328 15.1666 15.995H13.5909V14.7761V12.9031H15.1666V11.5058C15.1666 10.2275 15.7612 8.26534 18.4368 8.26534H20.8449V10.9113C20.8449 10.9113 19.3882 10.9113 19.0909 10.9113C18.7936 10.9113 18.4071 11.0599 18.4071 11.6545V12.9031H20.8747L20.6963 14.7761Z" fill="#F89921"/>
</svg>
