<svg width="20" height="20" viewBox="0 0 20 20" fill="none" xmlns="http://www.w3.org/2000/svg">
<path d="M19.8937 15.4786V10.044H9.75329C9.73606 10.0436 9.71926 10.0493 9.70576 10.06C9.69227 10.0708 9.68293 10.0858 9.67935 10.1027C9.67577 10.1196 9.67818 10.1371 9.68615 10.1524C9.69412 10.1677 9.70717 10.1797 9.72305 10.1864L19.8937 15.4786Z" fill="#F89921"/>
<path d="M14.3959 5.50399C14.5476 5.65567 14.6916 5.81492 14.8272 5.98115L18.2986 4.54088C17.1657 2.79588 15.5161 1.44833 13.5801 0.686523L10.5732 3.69341C12.0194 3.8336 13.3713 4.47392 14.3959 5.50399Z" fill="#F89921"/>
<path d="M3.65944 9.95109C3.65928 8.32858 4.2862 6.76878 5.40919 5.5977C6.53218 4.42661 8.06432 3.73486 9.68542 3.66701L12.9055 0.446914C11.9486 0.149889 10.9523 -0.000783613 9.95034 3.06459e-06C5.28559 3.06459e-06 1.37219 3.21083 0.295898 7.54236L3.74775 10.9942C3.68967 10.6495 3.66013 10.3006 3.65944 9.95109Z" fill="#F89921"/>
<path d="M5.50178 14.398C4.89049 13.7887 4.41148 13.0599 4.0947 12.2571L0.137388 8.2998C-0.247838 10.5948 0.182986 12.9522 1.35503 14.9626C2.52707 16.973 4.36628 18.5093 6.55319 19.3047L9.62692 16.231C8.07143 16.1557 6.60018 15.502 5.50178 14.398Z" fill="#F89921"/>
<path d="M15.0041 13.7402C14.9475 13.8071 14.6552 14.1232 14.5962 14.1881C14.5372 14.253 14.465 14.3291 14.3962 14.3979C13.3685 15.4313 12.0117 16.0725 10.5608 16.2104L7.24316 19.5281C9.23229 20.0883 11.3464 20.0157 13.2925 19.3206C15.2385 18.6254 16.9201 17.342 18.1042 15.6484C18.153 15.5781 18.1891 15.5337 18.2364 15.462L15.0041 13.7402Z" fill="#F89921"/>
</svg>
