<svg width="10" height="13" viewBox="0 0 10 13" fill="none" xmlns="http://www.w3.org/2000/svg">
<path fill-rule="evenodd" clip-rule="evenodd" d="M4.55 0C2.0345 0 0 2.0345 0 4.55C0 7.9625 4.55 13 4.55 13C4.55 13 9.1 7.9625 9.1 4.55C9.1 2.0345 7.0655 0 4.55 0ZM1.30001 4.55001C1.30001 2.75601 2.75601 1.30001 4.55001 1.30001C6.34401 1.30001 7.80001 2.75601 7.80001 4.55001C7.80001 6.42201 5.92801 9.22351 4.55001 10.972C3.19801 9.23651 1.30001 6.40251 1.30001 4.55001ZM2.92501 4.55001C2.92501 3.65255 3.65255 2.92501 4.55001 2.92501C5.13057 2.92501 5.66702 3.23473 5.9573 3.73751C6.24758 4.24029 6.24758 4.85973 5.9573 5.36251C5.66702 5.86529 5.13057 6.17501 4.55001 6.17501C3.65255 6.17501 2.92501 5.44747 2.92501 4.55001Z" fill="#F89921"/>
</svg>
