<svg width="256" height="73" viewBox="0 0 256 73" fill="none" xmlns="http://www.w3.org/2000/svg">
<path d="M149.354 7.17896C148.263 7.17896 147.264 7.17896 146.037 7.17896C146.037 5.22514 146.037 3.27132 146.037 1.13574C147.082 1.13574 148.127 1.13574 149.354 1.13574C149.354 3.08957 149.354 5.08883 149.354 7.17896Z" fill="white"/>
<path d="M0 0.0454102C5.90691 0.0454102 11.6775 0.0454102 17.6753 0.0454102C17.6753 8.58771 17.6753 17.0846 17.6753 25.8086C27.2627 25.8086 36.5774 25.8086 46.0284 25.8086C46.0284 30.8068 46.0284 35.5777 46.0284 40.5759C36.7137 40.5759 27.3535 40.5759 17.8116 40.5759C17.8116 51.1174 17.8116 61.4773 17.8116 71.9279C11.7684 71.9279 5.95235 71.9279 0.0454378 71.9279C0 47.9822 0 24.1274 0 0.0454102Z" fill="#F89921"/>
<path d="M193.383 48.8458C197.382 44.9836 201.789 43.7113 206.833 44.8927C212.104 46.1195 216.556 51.3449 217.102 56.7974C217.692 62.8861 214.648 68.5204 209.332 71.0649C204.106 73.6094 198.154 72.5189 193.928 68.4295C191.02 65.6123 189.657 62.2045 189.657 58.206C189.657 50.0272 189.657 41.8484 189.657 33.397C189.067 33.8514 188.612 34.2149 188.158 34.5784C182.433 39.1676 174.799 38.5769 169.665 33.1698C164.848 28.1262 164.666 19.8565 169.21 14.6312C173.3 9.95109 178.798 8.45165 184.477 10.5418C189.93 12.541 193.383 17.6301 193.383 23.6279C193.383 31.8521 193.383 40.1218 193.383 48.8458ZM213.376 58.3877C213.376 52.708 208.877 48.0734 203.289 48.1188C197.881 48.1188 193.429 52.7535 193.429 58.3877C193.429 63.9766 197.927 68.7021 203.289 68.7021C208.832 68.7021 213.376 64.1129 213.376 58.3877ZM179.661 33.8968C185.068 33.9422 189.566 29.353 189.657 23.7187C189.748 18.039 185.386 13.3589 179.934 13.3135C174.299 13.268 169.756 17.7664 169.71 23.4461C169.665 29.2167 174.072 33.8514 179.661 33.8968Z" fill="white"/>
<path d="M23.8547 42.8931C29.8525 42.8931 35.6686 42.8931 41.6209 42.8931C41.6209 52.4804 41.6209 62.0678 41.6209 71.7915C35.7594 71.7915 29.898 71.7915 23.8547 71.7915C23.8547 62.2495 23.8547 52.6622 23.8547 42.8931Z" fill="#9B9D9F"/>
<path d="M80.7882 36.8497C79.6069 36.8497 78.5164 36.8497 77.2895 36.8497C77.2895 31.4881 77.2895 26.2173 77.2895 20.7648C71.2917 20.7648 65.3848 20.7648 59.2962 20.7648C59.2962 37.7585 59.2962 54.7068 59.2962 71.7459C57.9785 71.7459 56.8425 71.7459 55.6157 71.7459C55.6157 48.2546 55.6157 24.8542 55.6157 1.31741C56.7062 1.31741 57.8876 1.31741 59.2507 1.31741C59.2507 6.45188 59.2507 11.6318 59.2507 16.9026C65.294 16.9026 71.1554 16.9026 77.1987 16.9026C77.1987 11.7227 77.1987 6.54275 77.1987 1.27197C78.5163 1.27197 79.6069 1.27197 80.7882 1.27197C80.7882 13.0403 80.7882 24.8087 80.7882 36.8497Z" fill="white"/>
<path d="M23.8093 0C29.8071 0 35.6231 0 41.6209 0C41.6209 7.81529 41.6209 15.6306 41.6209 23.5368C35.714 23.5368 29.8525 23.5368 23.8093 23.5368C23.8093 15.7669 23.8093 7.99704 23.8093 0Z" fill="#9A9C9F"/>
<path d="M111.277 71.7463C109.869 71.7463 108.778 71.7463 107.46 71.7463C107.46 69.7924 107.46 67.884 107.46 66.0211C107.46 62.4315 107.506 58.8419 107.46 55.2069C107.415 51.2538 104.689 48.3912 101.008 48.2095C97.146 48.0277 94.6015 50.2088 94.2834 54.4345C94.0108 58.0241 94.1016 61.6136 94.0562 65.2032C94.0108 67.2934 94.0562 69.4289 94.0562 71.6554C92.7839 71.6554 91.648 71.6554 90.2394 71.6554C90.2394 68.3839 90.194 65.2487 90.2394 62.068C90.2849 59.16 90.194 56.2974 90.5121 53.4348C91.0119 49.0728 93.5564 46.2102 97.7367 44.9834C101.962 43.7566 105.688 44.6654 108.551 48.2549C108.778 48.5276 109.005 48.8002 109.596 49.4818C109.732 49.1183 109.732 48.8002 109.914 48.573C112.731 44.8017 116.548 43.6657 120.955 44.938C125.408 46.2102 128.089 49.3909 128.362 53.9801C128.68 59.7961 128.453 65.6576 128.453 71.6099C127.271 71.6099 126.181 71.6099 124.863 71.6099C124.818 71.0647 124.772 70.4286 124.727 69.8379C124.727 65.385 124.727 60.9321 124.727 56.5246C124.727 55.525 124.636 54.5708 124.454 53.5712C123.772 49.8453 121.092 47.846 117.366 48.1641C113.912 48.4367 111.323 51.2538 111.277 54.8434C111.232 60.4323 111.277 66.0211 111.277 71.7463Z" fill="white"/>
<path d="M115.594 0.954102C116.275 0.954102 116.911 0.954102 117.502 0.954102C117.956 0.954102 118.456 1.04498 119.092 1.09041C119.092 5.31613 119.092 9.45096 119.092 13.9039C119.592 13.5858 119.865 13.4949 120.092 13.2677C124.363 9.40552 130.497 8.49677 135.359 11.0867C140.448 13.7675 143.674 19.9016 142.856 25.3542C141.948 31.5337 137.676 36.1684 131.951 37.3043C123.5 38.9855 115.594 32.7151 115.503 24.1728C115.412 16.8573 115.503 9.4964 115.503 2.18092C115.503 1.81742 115.548 1.49935 115.594 0.954102ZM129.043 33.8965C134.587 33.8965 139.176 29.2618 139.176 23.6275C139.221 18.0387 134.587 13.2677 129.089 13.2677C123.682 13.2677 119.274 17.8569 119.229 23.5367C119.229 29.2164 123.636 33.851 129.043 33.8965Z" fill="white"/>
<path d="M255.133 59.7505C247.454 59.7505 239.684 59.7505 231.96 59.7505C231.823 63.5673 234.731 67.2932 238.912 68.3383C244.228 69.656 248.226 67.9748 250.862 63.0675C251.998 63.0675 253.179 63.0675 254.361 63.0675C253.997 68.4292 246.909 72.9729 239.911 72.3822C233.005 71.7915 227.098 64.3852 227.825 57.206C228.643 49.209 235.64 43.4838 243.365 44.4835C250.771 45.4831 256.587 52.7531 255.133 59.7505ZM231.869 56.2518C238.457 56.2518 244.909 56.2518 251.407 56.2518C251.089 51.9807 246.954 48.3457 242.274 48.2094C236.958 48.0276 232.641 51.2991 231.869 56.2518Z" fill="white"/>
<path d="M186.84 59.8415C178.979 59.8415 171.255 59.8415 163.485 59.8415C163.485 64.3399 167.574 67.6114 170.8 68.4293C175.526 69.6561 179.388 67.9294 182.569 63.0222C183.705 63.0222 184.886 63.0222 186.067 63.0222C185.522 68.5656 178.252 73.1548 171.346 72.3369C165.802 71.6553 158.532 65.8847 159.577 56.57C160.395 49.3 167.62 43.5748 175.071 44.529C182.16 45.3923 188.248 52.6169 186.84 59.8415ZM183.159 56.2519C182.478 51.5264 178.388 48.3458 173.299 48.164C169.346 48.0277 163.848 51.4355 163.53 56.2519C170.073 56.2519 176.616 56.2519 183.159 56.2519Z" fill="white"/>
<path d="M112.05 36.8048C110.686 36.8048 109.687 36.8048 108.505 36.8048C108.46 35.6688 108.369 34.6238 108.369 33.9422C106.006 35.0327 103.689 36.5776 101.099 37.2137C95.2831 38.6677 89.6942 35.9869 86.5136 30.7615C83.5601 25.8997 84.0145 19.4021 87.6041 14.9038C91.4663 10.0874 97.2823 8.40617 102.962 10.4509C108.596 12.4956 112.05 17.4483 112.05 23.5824C112.05 27.9444 112.05 32.3064 112.05 36.8048ZM108.324 23.4461C108.278 17.8572 103.962 13.3134 98.6 13.3134C92.9657 13.268 88.422 17.8118 88.422 23.4915C88.422 29.3075 92.9203 33.9422 98.6455 33.8967C103.962 33.8513 108.369 29.1258 108.324 23.4461Z" fill="white"/>
<path d="M86.6953 71.7459C85.3776 71.7459 84.2871 71.7459 82.924 71.7459C82.924 70.61 82.924 69.6104 82.924 68.5653C82.924 64.385 82.9694 60.2502 82.924 56.0699C82.8331 51.7079 79.1981 48.2092 74.8815 48.2092C70.5649 48.2092 66.9299 51.7079 66.839 56.0699C66.7482 60.5682 66.839 65.112 66.839 69.6104C66.839 70.2919 66.839 70.9735 66.839 71.7459C65.5213 71.7459 64.4308 71.7459 63.204 71.7459C63.1586 71.1552 63.0677 70.61 63.0677 70.0647C63.1586 64.7031 62.8405 59.3414 63.4766 54.0252C64.2036 47.9366 69.6562 44.1198 75.972 44.5742C81.7426 44.9831 86.3318 49.6177 86.6953 55.4338C86.7408 56.0699 86.7408 56.706 86.7408 57.3422C86.6953 62.0677 86.6953 66.7932 86.6953 71.7459Z" fill="white"/>
<path d="M132.042 45.2563C133.405 45.2563 134.496 45.2563 135.814 45.2563C135.814 50.2545 135.814 55.1618 135.814 60.0691C135.814 62.659 136.586 64.8855 138.54 66.6575C140.993 68.884 143.811 69.3384 146.764 68.157C149.899 66.9302 151.762 64.4765 151.853 61.0687C151.989 56.5703 151.899 52.0266 151.899 47.5282C151.899 46.8467 151.899 46.1197 151.899 45.3018C153.171 45.3018 154.307 45.3018 155.534 45.3018C155.534 51.0269 155.852 56.7067 155.443 62.3864C155.079 67.748 150.172 72.8371 142.947 72.4281C137.222 72.1101 132.724 67.7935 132.088 61.5231C131.997 60.7506 131.997 59.9782 131.997 59.2057C132.042 54.6165 132.042 50.0727 132.042 45.2563Z" fill="white"/>
<path d="M153.216 1.04492C154.579 1.04492 155.67 1.04492 156.897 1.04492C156.897 4.08925 156.897 7.04271 156.897 10.2233C158.987 10.2233 160.895 10.2233 162.894 10.2233C162.894 11.4956 162.894 12.5407 162.894 13.7221C160.986 13.7221 159.078 13.7221 156.897 13.7221C156.897 14.6308 156.897 15.3578 156.897 16.1303C156.897 19.8107 156.897 23.4457 156.897 27.1262C156.897 32.4879 157.715 33.5329 162.894 34.6234C162.894 35.4867 162.894 36.3955 162.894 37.2588C157.896 38.3039 153.307 35.1232 153.216 30.216C153.125 20.5832 153.216 10.9049 153.216 1.04492Z" fill="white"/>
<path d="M223.917 71.7463C222.69 71.7463 221.6 71.7463 220.373 71.7463C220.373 59.7962 220.373 47.9369 220.373 35.9868C221.554 35.9868 222.69 35.9868 223.917 35.9868C223.917 47.8915 223.917 59.7962 223.917 71.7463Z" fill="white"/>
<path d="M145.991 10.3594C147.173 10.3594 148.172 10.3594 149.354 10.3594C149.354 19.1743 149.354 27.8983 149.354 36.7587C148.309 36.7587 147.218 36.7587 145.991 36.7587C145.991 28.0347 145.991 19.3106 145.991 10.3594Z" fill="white"/>
<path d="M46.9373 14.2221L50.1634 16.3577L50.2088 16.5394L46.9827 18.7204H52.5716V19.3566H45.665V18.9931L49.3001 16.4485L45.665 13.9495V13.5405H52.5716V14.1767H46.9373V14.2221Z" fill="#9A9C9E"/>
<path d="M52.5716 12.4952L45.665 9.99616V9.31459L52.5261 6.6792L52.617 7.31533L50.4814 8.13321V11.1775L52.5716 11.95V12.4952ZM49.9816 10.9503V8.26952L46.4375 9.63265L49.9816 10.9503Z" fill="#9A9C9E"/>
<path d="M50.6632 1.04492C51.3448 1.04492 51.8446 1.27211 52.1172 1.77193C52.4353 2.2263 52.5716 2.86243 52.5716 3.68031V5.63413H45.665V3.95294C45.665 3.1805 45.8014 2.54437 46.074 2.13543C46.3466 1.72649 46.801 1.4993 47.4825 1.4993C47.8006 1.4993 48.0732 1.59017 48.3459 1.77193C48.5731 1.95368 48.8002 2.2263 48.9366 2.49893C49.0729 2.04455 49.3001 1.68105 49.5727 1.45386C49.8453 1.18124 50.2088 1.04492 50.6632 1.04492ZM47.4825 2.08999C46.9827 2.08999 46.6647 2.2263 46.4829 2.54437C46.3012 2.86243 46.2103 3.31681 46.2103 3.9075V4.95257H48.7548V4.04381C48.7094 2.72612 48.3004 2.08999 47.4825 2.08999ZM50.6632 1.68105C50.1634 1.68105 49.7999 1.8628 49.5727 2.18087C49.3455 2.49893 49.2092 2.95331 49.2092 3.544V4.99801H52.0263V3.63487C52.0263 3.04418 51.9355 2.54437 51.7083 2.18087C51.5265 1.8628 51.163 1.68105 50.6632 1.68105Z" fill="#9A9C9E"/>
</svg>
