<svg width="13" height="20" viewBox="0 0 13 20" fill="none" xmlns="http://www.w3.org/2000/svg">
<path d="M6.5 0C2.91597 0 0 2.91597 0 6.5C0 7.57593 0.269 8.64271 0.780379 9.58892L6.14455 19.2905C6.21596 19.4198 6.35204 19.5 6.5 19.5C6.64796 19.5 6.78405 19.4198 6.85546 19.2905L12.2216 9.58572C12.731 8.64271 13 7.57589 13 6.49996C13 2.91597 10.084 0 6.5 0ZM11.5087 9.19576L6.5 18.2542L1.49331 9.19934C1.04778 8.37493 0.812524 7.44144 0.812524 6.5C0.812524 3.36386 3.3639 0.812524 6.5 0.812524C9.6361 0.812524 12.1875 3.3639 12.1875 6.5C12.1875 7.44141 11.9522 8.37493 11.5087 9.19576Z" fill="#F89921"/>
<path d="M6.50022 3.25C4.70821 3.25 3.25024 4.70797 3.25024 6.49998C3.25024 8.29204 4.70821 9.75 6.50022 9.75C8.29224 9.75 9.75021 8.29204 9.75021 6.50002C9.75021 4.708 8.29224 3.25 6.50022 3.25ZM6.50022 8.93752C5.1561 8.93752 4.06273 7.84415 4.06273 6.50002C4.06273 5.15589 5.1561 4.06252 6.50022 4.06252C7.84435 4.06252 8.93772 5.15589 8.93772 6.50002C8.93772 7.84411 7.84435 8.93752 6.50022 8.93752Z" fill="#F89921"/>
</svg>
