<svg width="34" height="33" viewBox="0 0 34 33" fill="none" xmlns="http://www.w3.org/2000/svg">
<path d="M24.3602 0.297852H10.0306C4.97663 0.297852 0.844238 4.43024 0.844238 9.48424V23.7841C0.844238 28.8976 4.97663 33.0002 10.0306 33.0002H24.3305C29.4142 33.0002 33.5169 28.8678 33.5169 23.8138V9.48424C33.5466 4.43024 29.4439 0.297852 24.3602 0.297852ZM22.9332 13.7356C22.9332 13.8545 22.9332 13.9734 22.9332 14.122C22.9332 14.6869 22.8737 15.2815 22.7251 15.8761C22.0116 19.2058 19.1576 22.3868 14.5198 22.3868C12.8549 22.3868 11.309 21.9111 9.97117 21.0787C10.209 21.1084 10.4468 21.1084 10.6847 21.1084C12.082 21.1084 13.3306 20.6328 14.3414 19.8598C13.063 19.8301 11.963 18.9977 11.5766 17.8382C11.7549 17.8679 11.9333 17.8977 12.1414 17.8977C12.409 17.8977 12.6765 17.8679 12.9144 17.7788C11.9333 17.5706 11.1009 16.8869 10.7441 15.995C10.6252 15.668 10.536 15.3112 10.536 14.9545C10.536 14.9247 10.536 14.9247 10.536 14.9247C10.9225 15.1328 11.3982 15.2815 11.8739 15.2815C11.1009 14.7761 10.5658 13.8842 10.5658 12.8437C10.5658 12.3085 10.7144 11.8329 10.982 11.3869C12.4387 13.141 14.609 14.3004 17.0765 14.4193C17.017 14.2112 16.9873 14.0031 16.9873 13.7653C16.9873 12.1599 18.3251 10.8518 19.9305 10.8518C20.7927 10.8518 21.5656 11.2086 22.1008 11.7734C22.7846 11.6545 23.4089 11.3869 23.9737 11.0599C23.7656 11.7437 23.29 12.3085 22.6656 12.6653C23.2602 12.5761 23.8251 12.4275 24.3602 12.1896C24.0035 12.8139 23.4981 13.3193 22.9332 13.7356Z" fill="#F89921"/>
</svg>
