<svg width="16" height="16" viewBox="0 0 16 16" fill="none" xmlns="http://www.w3.org/2000/svg">
<path id="Whatsapp" fill-rule="evenodd" clip-rule="evenodd" d="M0 7.99993C0 3.58843 3.58742 0 7.99768 0V0.000132733H8.00232C12.4126 0.000132733 16 3.58856 16 8.00007C16 12.4114 12.4126 16 8.00232 16C6.37548 16 4.8662 15.5157 3.60148 14.6785L0.526535 15.6613L1.52334 12.689C0.56422 11.372 0 9.74948 0 7.99993ZM5.25654 3.66845C5.49154 3.678 5.60911 3.69207 5.76423 4.06359C5.81434 4.18456 5.88317 4.3516 5.95861 4.53465C6.17345 5.05599 6.44183 5.70725 6.48357 5.79429C6.53997 5.9119 6.5965 6.07184 6.51648 6.227C6.44649 6.37579 6.38465 6.44728 6.28172 6.56627C6.274 6.57519 6.26606 6.58437 6.25786 6.59388C6.20754 6.65227 6.1581 6.70461 6.10879 6.75682C6.04287 6.82661 5.97718 6.89615 5.90993 6.9796C5.90805 6.98181 5.90616 6.98402 5.90427 6.98624C5.79773 7.11128 5.68195 7.24717 5.81598 7.47814C5.95226 7.70857 6.4224 8.4751 7.11361 9.09111C7.93393 9.82087 8.6114 10.0949 8.91697 10.2185C8.94421 10.2295 8.96849 10.2393 8.98966 10.2481C9.18233 10.3282 9.41282 10.3093 9.55388 10.1588C9.70677 9.99395 9.89055 9.73604 10.0818 9.46768C10.1141 9.42231 10.1466 9.37665 10.1793 9.33109C10.339 9.10531 10.5411 9.07704 10.7528 9.15695C10.9691 9.2322 12.1117 9.79658 12.3467 9.91419C12.3947 9.93823 12.4394 9.95971 12.4806 9.97952C12.641 10.0567 12.7485 10.1084 12.7934 10.187C12.8499 10.2857 12.8499 10.7513 12.6571 11.297C12.4643 11.8424 11.6978 12.2941 11.0866 12.4258C10.6683 12.5151 10.1227 12.5857 8.28438 11.8238C6.10693 10.9219 4.64737 8.8056 4.3505 8.37516C4.32687 8.34088 4.3106 8.3173 4.30193 8.30586C4.29862 8.30131 4.2947 8.29594 4.29019 8.28978C4.14082 8.0855 3.35223 7.00703 3.35223 5.89305C3.35223 4.77762 3.90305 4.21769 4.14972 3.96693C4.15684 3.9597 4.16371 3.95272 4.1703 3.94599C4.3631 3.74849 4.68277 3.65916 4.98849 3.65916C5.08735 3.65916 5.17652 3.6638 5.25654 3.66845Z" fill="#F89921"/>
</svg>
